rom/simulation/qsim/single_port_rom.msim.vcd
$comment
	File created using the following command:
		vcd file single_port_rom.msim.vcd -direction
$end
$date
	Tue Sep 04 20:32:17 2018
$end
$version
	ModelSim Version 10.4d
$end
$timescale
	1ps
$end

$scope module single_port_rom_vlg_vec_tst $end
$var reg 8 ! addr [7:0] $end
$var reg 1 " clk $end
$var wire 1 # q [7] $end
$var wire 1 $ q [6] $end
$var wire 1 % q [5] $end
$var wire 1 & q [4] $end
$var wire 1 ' q [3] $end
$var wire 1 ( q [2] $end
$var wire 1 ) q [1] $end
$var wire 1 * q [0] $end

$scope module i1 $end
$var wire 1 + gnd $end
$var wire 1 , vcc $end
$var wire 1 - unknown $end
$var tri1 1 . devclrn $end
$var tri1 1 / devpor $end
$var tri1 1 0 devoe $end
$var wire 1 1 q[0]~output_o $end
$var wire 1 2 q[1]~output_o $end
$var wire 1 3 q[2]~output_o $end
$var wire 1 4 q[3]~output_o $end
$var wire 1 5 q[4]~output_o $end
$var wire 1 6 q[5]~output_o $end
$var wire 1 7 q[6]~output_o $end
$var wire 1 8 q[7]~output_o $end
$var wire 1 9 clk~input_o $end
$var wire 1 : clk~inputclkctrl_outclk $end
$var wire 1 ; addr[0]~input_o $end
$var wire 1 < addr[1]~input_o $end
$var wire 1 = addr[2]~input_o $end
$var wire 1 > addr[3]~input_o $end
$var wire 1 ? addr[4]~input_o $end
$var wire 1 @ addr[5]~input_o $end
$var wire 1 A addr[6]~input_o $end
$var wire 1 B addr[7]~input_o $end
$var wire 1 C rom_rtl_0|auto_generated|ram_block1a0~portadataout $end
$var wire 1 D rom_rtl_0|auto_generated|ram_block1a1 $end
$var wire 1 E rom_rtl_0|auto_generated|ram_block1a2 $end
$var wire 1 F rom_rtl_0|auto_generated|ram_block1a3 $end
$var wire 1 G rom_rtl_0|auto_generated|ram_block1a4 $end
$var wire 1 H rom_rtl_0|auto_generated|ram_block1a5 $end
$var wire 1 I rom_rtl_0|auto_generated|ram_block1a6 $end
$var wire 1 J rom_rtl_0|auto_generated|ram_block1a7 $end
$var wire 1 K rom_rtl_0|auto_generated|ram_block1a0_PORTADATAOUT_bus [17] $end
$var wire 1 L rom_rtl_0|auto_generated|ram_block1a0_PORTADATAOUT_bus [16] $end
$var wire 1 M rom_rtl_0|auto_generated|ram_block1a0_PORTADATAOUT_bus [15] $end
$var wire 1 N rom_rtl_0|auto_generated|ram_block1a0_PORTADATAOUT_bus [14] $end
$var wire 1 O rom_rtl_0|auto_generated|ram_block1a0_PORTADATAOUT_bus [13] $end
$var wire 1 P rom_rtl_0|auto_generated|ram_block1a0_PORTADATAOUT_bus [12] $end
$var wire 1 Q rom_rtl_0|auto_generated|ram_block1a0_PORTADATAOUT_bus [11] $end
$var wire 1 R rom_rtl_0|auto_generated|ram_block1a0_PORTADATAOUT_bus [10] $end
$var wire 1 S rom_rtl_0|auto_generated|ram_block1a0_PORTADATAOUT_bus [9] $end
$var wire 1 T rom_rtl_0|auto_generated|ram_block1a0_PORTADATAOUT_bus [8] $end
$var wire 1 U rom_rtl_0|auto_generated|ram_block1a0_PORTADATAOUT_bus [7] $end
$var wire 1 V rom_rtl_0|auto_generated|ram_block1a0_PORTADATAOUT_bus [6] $end
$var wire 1 W rom_rtl_0|auto_generated|ram_block1a0_PORTADATAOUT_bus [5] $end
$var wire 1 X rom_rtl_0|auto_generated|ram_block1a0_PORTADATAOUT_bus [4] $end
$var wire 1 Y rom_rtl_0|auto_generated|ram_block1a0_PORTADATAOUT_bus [3] $end
$var wire 1 Z rom_rtl_0|auto_generated|ram_block1a0_PORTADATAOUT_bus [2] $end
$var wire 1 [ rom_rtl_0|auto_generated|ram_block1a0_PORTADATAOUT_bus [1] $end
$var wire 1 \ rom_rtl_0|auto_generated|ram_block1a0_PORTADATAOUT_bus [0] $end
$upscope $end
$upscope $end
$enddefinitions $end
#0
$dumpvars
b0 !
0"
0*
0)
0(
0'
0&
0%
0$
0#
0+
1,
x-
1.
1/
10
01
02
03
04
05
06
07
08
09
0:
0;
0<
0=
0>
0?
0@
0A
0B
0C
0D
0E
0F
0G
0H
0I
0J
0\
0[
0Z
0Y
0X
0W
0V
0U
0T
0S
0R
0Q
0P
0O
0N
0M
0L
0K
$end
#10000
1"
19
1:
#10001
1\
1V
1C
1I
17
11
1*
1$
#20000
b1 !
0"
1;
09
0:
#30000
1"
19
1:
#30001
0\
1[
1Z
1Y
1W
0C
1D
1E
1F
1H
16
14
13
12
01
0*
1)
1(
1'
1%
#40000
b11 !
b10 !
0"
0;
1<
09
0:
#50000
1"
19
1:
#50001
0[
0Y
1X
0D
0F
1G
15
04
02
0)
0'
1&
#60000
b11 !
0"
1;
09
0:
#70000
1"
19
1:
#70001
1\
1[
1Y
0X
1C
1D
1F
0G
05
14
12
11
1*
1)
1'
0&
#80000
b111 !
b101 !
b100 !
0"
0;
0<
1=
09
0:
#90000
1"
19
1:
#90001
0\
0C
01
0*
#100000
b101 !
0"
1;
09
0:
#110000
1"
19
1:
#110001
1\
0[
0Z
1C
0D
0E
03
02
11
1*
0)
0(
#120000
b111 !
b110 !
0"
0;
1<
09
0:
#130000
1"
19
1:
#130001
1[
1Z
1D
1E
13
12
1)
1(
#140000
b111 !
0"
1;
09
0:
#150000
1"
19
1:
#150001
0\
0[
0Z
0Y
0V
0C
0D
0E
0F
0I
07
04
03
02
01
0*
0)
0(
0'
0$
#160000
b1111 !
b1011 !
b1001 !
b1000 !
0"
0;
0<
0=
1>
09
0:
#170000
1"
19
1:
#170001
1\
1[
0W
1V
1C
1D
0H
1I
17
06
12
11
1*
1)
0%
1$
#180000
b1001 !
0"
1;
09
0:
#190000
1"
19
1:
#190001
0[
1W
0D
1H
16
02
0)
1%
#200000
b1011 !
b1010 !
0"
0;
1<
09
0:
#210000
1"
19
1:
#210001
0\
1[
1X
0C
1D
1G
15
12
01
0*
1)
1&
#220000
b1011 !
0"
1;
09
0:
#230000
1"
19
1:
#230001
0[
1Z
1Y
0X
0D
1E
1F
0G
05
14
13
02
0)
1(
1'
0&
#240000
b1111 !
b1101 !
b1100 !
0"
0;
0<
1=
09
0:
#250000
1"
19
1:
#250001
1\
1[
1C
1D
12
11
1*
1)
#260000
b1101 !
0"
1;
09
0:
#270000
1"
19
1:
#270001
0Z
0Y
1X
0E
0F
1G
15
04
03
0(
0'
1&
#280000
b1111 !
b1110 !
0"
0;
1<
09
0:
#290000
1"
19
1:
#290001
0\
0[
0X
0V
0C
0D
0G
0I
07
05
02
01
0*
0)
0&
0$
#300000
b1111 !
0"
1;
09
0:
#310000
1"
19
1:
#310001
1[
1Y
0W
1V
1D
1F
0H
1I
17
06
14
12
1)
1'
0%
1$
#320000
b11111 !
b10111 !
b10011 !
b10001 !
b10000 !
0"
0;
0<
0=
0>
1?
09
0:
#330000
1"
19
1:
#330001
1\
1Z
1W
1C
1E
1H
16
13
11
1*
1(
1%
#340000
b10001 !
0"
1;
09
0:
#350000
1"
19
1:
#350001
0[
0Z
0Y
0D
0E
0F
04
03
02
0)
0(
0'
#360000
b10011 !
b10010 !
0"
0;
1<
09
0:
#370000
1"
19
1:
#370001
1[
1Z
1Y
1D
1E
1F
14
13
12
1)
1(
1'
#380000
b10011 !
0"
1;
09
0:
#390000
1"
19
1:
#390001
0\
0V
0C
0I
07
01
0*
0$
#400000
b10111 !
b10101 !
b10100 !
0"
0;
0<
1=
09
0:
#410000
1"
19
1:
#410001
0[
0Z
0Y
0W
0D
0E
0F
0H
06
04
03
02
0)
0(
0'
0%
#420000
b10101 !
0"
1;
09
0:
#430000
1"
19
1:
#440000
b10111 !
b10110 !
0"
0;
1<
09
0:
#450000
1"
19
1:
#460000
b10111 !
0"
1;
09
0:
#470000
1"
19
1:
#480000
b11111 !
b11011 !
b11001 !
b11000 !
0"
0;
0<
0=
1>
09
0:
#490000
1"
19
1:
#500000
b11001 !
0"
1;
09
0:
#510000
1"
19
1:
#520000
b11011 !
b11010 !
0"
0;
1<
09
0:
#530000
1"
19
1:
#540000
b11011 !
0"
1;
09
0:
#550000
1"
19
1:
#560000
b11111 !
b11101 !
b11100 !
0"
0;
0<
1=
09
0:
#570000
1"
19
1:
#580000
b11101 !
0"
1;
09
0:
#590000
1"
19
1:
#600000
b11111 !
b11110 !
0"
0;
1<
09
0:
#610000
1"
19
1:
#620000
b11111 !
0"
1;
09
0:
#630000
1"
19
1:
#640000
b111111 !
b101111 !
b100111 !
b100011 !
b100001 !
b100000 !
0"
0;
0<
0=
0>
0?
1@
09
0:
#650000
1"
19
1:
#660000
b100001 !
0"
1;
09
0:
#670000
1"
19
1:
#680000
b100011 !
b100010 !
0"
0;
1<
09
0:
#690000
1"
19
1:
#700000
b100011 !
0"
1;
09
0:
#710000
1"
19
1:
#720000
b100111 !
b100101 !
b100100 !
0"
0;
0<
1=
09
0:
#730000
1"
19
1:
#740000
b100101 !
0"
1;
09
0:
#750000
1"
19
1:
#760000
b100111 !
b100110 !
0"
0;
1<
09
0:
#770000
1"
19
1:
#780000
b100111 !
0"
1;
09
0:
#790000
1"
19
1:
#800000
b101111 !
b101011 !
b101001 !
b101000 !
0"
0;
0<
0=
1>
09
0:
#810000
1"
19
1:
#820000
b101001 !
0"
1;
09
0:
#830000
1"
19
1:
#840000
b101011 !
b101010 !
0"
0;
1<
09
0:
#850000
1"
19
1:
#860000
b101011 !
0"
1;
09
0:
#870000
1"
19
1:
#880000
b101111 !
b101101 !
b101100 !
0"
0;
0<
1=
09
0:
#890000
1"
19
1:
#900000
b101101 !
0"
1;
09
0:
#910000
1"
19
1:
#920000
b101111 !
b101110 !
0"
0;
1<
09
0:
#930000
1"
19
1:
#940000
b101111 !
0"
1;
09
0:
#950000
1"
19
1:
#960000
b111111 !
b110111 !
b110011 !
b110001 !
b110000 !
0"
0;
0<
0=
0>
1?
09
0:
#970000
1"
19
1:
#980000
b110001 !
0"
1;
09
0:
#990000
1"
19
1:
