multiplex/simulation/qsim/multiplex.msim.vcd
$comment
	File created using the following command:
		vcd file multiplex.msim.vcd -direction
$end
$date
	Tue Aug 14 15:05:15 2018
$end
$version
	ModelSim Version 10.4d
$end
$timescale
	1ps
$end

$scope module multiplex_vlg_vec_tst $end
$var reg 1 ! a $end
$var reg 1 " b $end
$var reg 1 # sel $end
$var wire 1 $ y $end

$scope module i1 $end
$var wire 1 % gnd $end
$var wire 1 & vcc $end
$var wire 1 ' unknown $end
$var tri1 1 ( devclrn $end
$var tri1 1 ) devpor $end
$var tri1 1 * devoe $end
$var wire 1 + y~output_o $end
$var wire 1 , b~input_o $end
$var wire 1 - sel~input_o $end
$var wire 1 . a~input_o $end
$var wire 1 / y~0_combout $end
$upscope $end
$upscope $end
$enddefinitions $end
#0
$dumpvars
0!
0"
0#
0$
0%
1&
x'
1(
1)
1*
0+
0,
0-
0.
0/
$end
#10000
1!
1.
1/
1+
1$
#20000
1"
0!
1,
0.
0/
0+
0$
#30000
1!
1.
1/
1+
1$
#40000
1#
0"
0!
1-
0,
0.
0/
0+
0$
#50000
1!
1.
#60000
1"
0!
1,
0.
1/
1+
1$
#70000
1!
1.
