fsm_rom_sequenciador/simulation/qsim/fsm_rom_sequenciador.msim.vcd
$comment
	File created using the following command:
		vcd file fsm_rom_sequenciador.msim.vcd -direction
$end
$date
	Tue Sep 11 14:21:44 2018
$end
$version
	ModelSim Version 10.4d
$end
$timescale
	1ps
$end

$scope module fsm_rom_sequenciador_vlg_vec_tst $end
$var reg 1 ! A $end
$var reg 1 " CLK $end
$var wire 1 # b0 $end
$var wire 1 $ b0ea $end
$var wire 1 % b1 $end
$var wire 1 & b1ea $end
$var wire 1 ' b2 $end
$var wire 1 ( b3 $end
$var wire 1 ) b4 $end
$var wire 1 * b5 $end
$var wire 1 + b6 $end
$var wire 1 , b7 $end

$scope module i1 $end
$var wire 1 - gnd $end
$var wire 1 . vcc $end
$var wire 1 / unknown $end
$var tri1 1 0 devclrn $end
$var tri1 1 1 devpor $end
$var tri1 1 2 devoe $end
$var wire 1 3 b0~output_o $end
$var wire 1 4 b1~output_o $end
$var wire 1 5 b2~output_o $end
$var wire 1 6 b7~output_o $end
$var wire 1 7 b6~output_o $end
$var wire 1 8 b5~output_o $end
$var wire 1 9 b4~output_o $end
$var wire 1 : b3~output_o $end
$var wire 1 ; b1ea~output_o $end
$var wire 1 < b0ea~output_o $end
$var wire 1 = A~input_o $end
$var wire 1 > CLK~input_o $end
$var wire 1 ? inst|rom~4_combout $end
$var wire 1 @ inst4|q~q $end
$var wire 1 A inst|rom~3_combout $end
$var wire 1 B inst5|q~0_combout $end
$var wire 1 C inst5|q~q $end
$var wire 1 D inst|rom~0_combout $end
$var wire 1 E inst|rom~1_combout $end
$var wire 1 F inst|rom~2_combout $end
$upscope $end
$upscope $end
$enddefinitions $end
#0
$dumpvars
0!
0"
0#
0$
1%
0&
0'
0(
1)
0*
1+
0,
0-
1.
x/
10
11
12
03
14
05
06
17
08
19
0:
0;
0<
0=
0>
0?
0@
0A
1B
0C
0D
0E
0F
$end
#10000
1"
1>
1C
1;
1E
1A
1&
1D
1?
13
09
04
0%
0)
1#
0B
#20000
0"
0>
#30000
1"
1>
0C
1@
1<
0;
0E
0&
1$
0?
14
1%
#40000
0"
0>
#50000
1"
1>
0@
0<
0A
0$
0D
03
19
1)
0#
1B
#60000
0"
0>
#70000
1"
1>
1C
1;
1E
1A
1&
1D
1?
13
09
04
0%
0)
1#
0B
#80000
1!
0"
1=
0>
0E
0?
14
1%
#90000
1"
1>
0C
0;
1E
0&
1?
04
0%
#100000
0"
0>
#110000
1"
1>
1@
1<
0E
0A
1$
0D
0?
03
19
14
1%
1)
0#
1B
#120000
0"
0>
#130000
1"
1>
1C
0@
0<
1;
1A
1&
0$
1D
13
09
0)
1#
0B
#140000
0"
0>
#150000
1"
1>
0C
0;
1E
0&
1?
04
0%
#160000
0!
0"
0=
0>
0E
0A
0D
0?
03
19
14
1%
1)
0#
1B
#170000
1"
1>
1C
1;
1E
1A
1&
1D
1?
13
09
04
0%
0)
1#
0B
#180000
0"
0>
#190000
1"
1>
0C
1@
1<
0;
0E
0&
1$
0?
14
1%
#200000
0"
0>
#210000
1"
1>
0@
0<
0A
0$
0D
03
19
1)
0#
1B
#220000
0"
0>
#230000
1"
1>
1C
1;
1E
1A
1&
1D
1?
13
09
04
0%
0)
1#
0B
#240000
1!
0"
1=
0>
0E
0?
14
1%
#250000
1"
1>
0C
0;
1E
0&
1?
04
0%
#260000
0"
0>
#270000
1"
1>
1@
1<
0E
0A
1$
0D
0?
03
19
14
1%
1)
0#
1B
#280000
0"
0>
#290000
1"
1>
1C
0@
0<
1;
1A
1&
0$
1D
13
09
0)
1#
0B
#300000
0"
0>
#310000
1"
1>
0C
0;
1E
0&
1?
04
0%
#320000
0!
0"
0=
0>
0E
0A
0D
0?
03
19
14
1%
1)
0#
1B
#330000
1"
1>
1C
1;
1E
1A
1&
1D
1?
13
09
04
0%
0)
1#
0B
#340000
0"
0>
#350000
1"
1>
0C
1@
1<
0;
0E
0&
1$
0?
14
1%
#360000
0"
0>
#370000
1"
1>
0@
0<
0A
0$
0D
03
19
1)
0#
1B
#380000
0"
0>
#390000
1"
1>
1C
1;
1E
1A
1&
1D
1?
13
09
04
0%
0)
1#
0B
#400000
1!
0"
1=
0>
0E
0?
14
1%
#410000
1"
1>
0C
0;
1E
0&
1?
04
0%
#420000
0"
0>
#430000
1"
1>
1@
1<
0E
0A
1$
0D
0?
03
19
14
1%
1)
0#
1B
#440000
0"
0>
#450000
1"
1>
1C
0@
0<
1;
1A
1&
0$
1D
13
09
0)
1#
0B
#460000
0"
0>
#470000
1"
1>
0C
0;
1E
0&
1?
04
0%
#480000
0!
0"
0=
0>
0E
0A
0D
0?
03
19
14
1%
1)
0#
1B
#490000
1"
1>
1C
1;
1E
1A
1&
1D
1?
13
09
04
0%
0)
1#
0B
#500000
0"
0>
#510000
1"
1>
0C
1@
1<
0;
0E
0&
1$
0?
14
1%
#520000
0"
0>
#530000
1"
1>
0@
0<
0A
0$
0D
03
19
1)
0#
1B
#540000
0"
0>
#550000
1"
1>
1C
1;
1E
1A
1&
1D
1?
13
09
04
0%
0)
1#
0B
#560000
1!
0"
1=
0>
0E
0?
14
1%
#570000
1"
1>
0C
0;
1E
0&
1?
04
0%
#580000
0"
0>
#590000
1"
1>
1@
1<
0E
0A
1$
0D
0?
03
19
14
1%
1)
0#
1B
#600000
0"
0>
#610000
1"
1>
1C
0@
0<
1;
1A
1&
0$
1D
13
09
0)
1#
0B
#620000
0"
0>
#630000
1"
1>
0C
0;
1E
0&
1?
04
0%
#640000
0!
0"
0=
0>
0E
0A
0D
0?
03
19
14
1%
1)
0#
1B
#650000
1"
1>
1C
1;
1E
1A
1&
1D
1?
13
09
04
0%
0)
1#
0B
#660000
0"
0>
#670000
1"
1>
0C
1@
1<
0;
0E
0&
1$
0?
14
1%
#680000
0"
0>
#690000
1"
1>
0@
0<
0A
0$
0D
03
19
1)
0#
1B
#700000
0"
0>
#710000
1"
1>
1C
1;
1E
1A
1&
1D
1?
13
09
04
0%
0)
1#
0B
#720000
1!
0"
1=
0>
0E
0?
14
1%
#730000
1"
1>
0C
0;
1E
0&
1?
04
0%
#740000
0"
0>
#750000
1"
1>
1@
1<
0E
0A
1$
0D
0?
03
19
14
1%
1)
0#
1B
#760000
0"
0>
#770000
1"
1>
1C
0@
0<
1;
1A
1&
0$
1D
13
09
0)
1#
0B
#780000
0"
0>
#790000
1"
1>
0C
0;
1E
0&
1?
04
0%
#800000
0!
0"
0=
0>
0E
0A
0D
0?
03
19
14
1%
1)
0#
1B
#810000
1"
1>
1C
1;
1E
1A
1&
1D
1?
13
09
04
0%
0)
1#
0B
#820000
0"
0>
#830000
1"
1>
0C
1@
1<
0;
0E
0&
1$
0?
14
1%
#840000
0"
0>
#850000
1"
1>
0@
0<
0A
0$
0D
03
19
1)
0#
1B
#860000
0"
0>
#870000
1"
1>
1C
1;
1E
1A
1&
1D
1?
13
09
04
0%
0)
1#
0B
#880000
1!
0"
1=
0>
0E
0?
14
1%
#890000
1"
1>
0C
0;
1E
0&
1?
04
0%
#900000
0"
0>
#910000
1"
1>
1@
1<
0E
0A
1$
0D
0?
03
19
14
1%
1)
0#
1B
#920000
0"
0>
#930000
1"
1>
1C
0@
0<
1;
1A
1&
0$
1D
13
09
0)
1#
0B
#940000
0"
0>
#950000
1"
1>
0C
0;
1E
0&
1?
04
0%
#960000
0!
0"
0=
0>
0E
0A
0D
0?
03
19
14
1%
1)
0#
1B
#970000
1"
1>
1C
1;
1E
1A
1&
1D
1?
13
09
04
0%
0)
1#
0B
#980000
0"
0>
#990000
1"
1>
0C
1@
1<
0;
0E
0&
1$
0?
14
1%
