fsm_rom_sequenciador/simulation/qsim/fsm_rom_sequenciador.msim.vcd
$comment
	File created using the following command:
		vcd file fsm_rom_sequenciador.msim.vcd -direction
$end
$date
	Sun Sep 09 12:51:53 2018
$end
$version
	ModelSim Version 10.4d
$end
$timescale
	1ps
$end

$scope module fsm_rom_sequenciador_vlg_vec_tst $end
$var reg 1 ! A $end
$var reg 1 " CLK $end
$var wire 1 # b0 $end
$var wire 1 $ b0ea $end
$var wire 1 % b1 $end
$var wire 1 & b1ea $end
$var wire 1 ' b2 $end
$var wire 1 ( b3 $end
$var wire 1 ) b4 $end
$var wire 1 * b5 $end
$var wire 1 + b6 $end
$var wire 1 , b7 $end

$scope module i1 $end
$var wire 1 - gnd $end
$var wire 1 . vcc $end
$var wire 1 / unknown $end
$var tri1 1 0 devclrn $end
$var tri1 1 1 devpor $end
$var tri1 1 2 devoe $end
$var wire 1 3 b0~output_o $end
$var wire 1 4 b1~output_o $end
$var wire 1 5 b2~output_o $end
$var wire 1 6 b7~output_o $end
$var wire 1 7 b6~output_o $end
$var wire 1 8 b5~output_o $end
$var wire 1 9 b4~output_o $end
$var wire 1 : b3~output_o $end
$var wire 1 ; b1ea~output_o $end
$var wire 1 < b0ea~output_o $end
$var wire 1 = CLK~input_o $end
$var wire 1 > CLK~inputclkctrl_outclk $end
$var wire 1 ? A~input_o $end
$var wire 1 @ inst|rom~4_combout $end
$var wire 1 A inst4|q~feeder_combout $end
$var wire 1 B inst4|q~q $end
$var wire 1 C inst|rom~3_combout $end
$var wire 1 D inst|q[1]~feeder_combout $end
$var wire 1 E inst5|q~feeder_combout $end
$var wire 1 F inst5|q~q $end
$var wire 1 G inst|rom~0_combout $end
$var wire 1 H inst|rom~1_combout $end
$var wire 1 I inst|rom~2_combout $end
$var wire 1 J inst|q [9] $end
$var wire 1 K inst|q [8] $end
$var wire 1 L inst|q [7] $end
$var wire 1 M inst|q [6] $end
$var wire 1 N inst|q [5] $end
$var wire 1 O inst|q [4] $end
$var wire 1 P inst|q [3] $end
$var wire 1 Q inst|q [2] $end
$var wire 1 R inst|q [1] $end
$var wire 1 S inst|q [0] $end
$upscope $end
$upscope $end
$enddefinitions $end
#0
$dumpvars
0!
0"
0#
0$
0%
0&
0'
0(
0)
0*
0+
0,
0-
1.
x/
10
11
12
03
04
05
06
07
08
09
0:
0;
0<
0=
0>
0?
0@
0A
0B
1C
1D
0E
0F
0G
1H
1I
0S
0R
0Q
0P
zO
zN
0M
zL
0K
zJ
$end
#10000
1"
1=
1>
1R
1M
1K
1P
14
17
19
1)
1+
1%
1E
#20000
1!
0"
1?
0=
0>
0H
1G
0C
1@
0D
#30000
1"
1=
1>
0R
1S
0M
0P
1Q
1F
1;
13
04
09
0)
0%
1#
1&
0E
1A
1H
0@
#40000
0!
0"
0?
0=
0>
0H
1@
#50000
1"
1=
1>
0F
1B
1<
0;
0&
1$
1H
0@
#60000
1!
0"
1?
0=
0>
0G
1C
1D
#70000
1"
1=
1>
1R
0S
1M
1P
0Q
03
14
19
1)
1%
0#
1E
0A
#80000
0!
0"
0?
0=
0>
1G
0C
0D
#90000
1"
1=
1>
0R
0M
1Q
1F
0B
0<
1;
13
09
0)
1#
1&
0$
0E
0H
1@
#100000
1!
0"
1?
0=
0>
1H
0@
#110000
1"
1=
1>
0F
0;
0&
0H
1@
#120000
0!
0"
0?
0=
0>
1H
0G
1C
0@
1D
#130000
1"
1=
1>
1R
1M
0Q
03
19
1)
0#
1E
#140000
1!
0"
1?
0=
0>
0H
1G
0C
1@
0D
#150000
1"
1=
1>
0R
1S
0M
0P
1Q
1F
1;
13
04
09
0)
0%
1#
1&
0E
1A
1H
0@
#160000
0!
0"
0?
0=
0>
0H
1@
#170000
1"
1=
1>
0F
1B
1<
0;
0&
1$
1H
0@
#180000
1!
0"
1?
0=
0>
0G
1C
1D
#190000
1"
1=
1>
1R
0S
1M
1P
0Q
03
14
19
1)
1%
0#
1E
0A
#200000
0!
0"
0?
0=
0>
1G
0C
0D
#210000
1"
1=
1>
0R
0M
1Q
1F
0B
0<
1;
13
09
0)
1#
1&
0$
0E
0H
1@
#220000
1!
0"
1?
0=
0>
1H
0@
#230000
1"
1=
1>
0F
0;
0&
0H
1@
#240000
0!
0"
0?
0=
0>
1H
0G
1C
0@
1D
#250000
1"
1=
1>
1R
1M
0Q
03
19
1)
0#
1E
#260000
1!
0"
1?
0=
0>
0H
1G
0C
1@
0D
#270000
1"
1=
1>
0R
1S
0M
0P
1Q
1F
1;
13
04
09
0)
0%
1#
1&
0E
1A
1H
0@
#280000
0!
0"
0?
0=
0>
0H
1@
#290000
1"
1=
1>
0F
1B
1<
0;
0&
1$
1H
0@
#300000
1!
0"
1?
0=
0>
0G
1C
1D
#310000
1"
1=
1>
1R
0S
1M
1P
0Q
03
14
19
1)
1%
0#
1E
0A
#320000
0!
0"
0?
0=
0>
1G
0C
0D
#330000
1"
1=
1>
0R
0M
1Q
1F
0B
0<
1;
13
09
0)
1#
1&
0$
0E
0H
1@
#340000
1!
0"
1?
0=
0>
1H
0@
#350000
1"
1=
1>
0F
0;
0&
0H
1@
#360000
0!
0"
0?
0=
0>
1H
0G
1C
0@
1D
#370000
1"
1=
1>
1R
1M
0Q
03
19
1)
0#
1E
#380000
1!
0"
1?
0=
0>
0H
1G
0C
1@
0D
#390000
1"
1=
1>
0R
1S
0M
0P
1Q
1F
1;
13
04
09
0)
0%
1#
1&
0E
1A
1H
0@
