fsm_sequenciador/simulation/qsim/fsm_sequenciador.msim.vcd
$comment
	File created using the following command:
		vcd file fsm_sequenciador.msim.vcd -direction
$end
$date
	Sun Sep 02 11:17:24 2018
$end
$version
	ModelSim Version 10.4d
$end
$timescale
	1ps
$end

$scope module fsm_sequenciador_vlg_vec_tst $end
$var reg 1 ! A $end
$var reg 1 " Bi2 $end
$var reg 1 # Bi3 $end
$var reg 1 $ Bi5 $end
$var reg 1 % Bi6 $end
$var reg 1 & Bi7 $end
$var reg 1 ' clk $end
$var wire 1 ( B0 $end
$var wire 1 ) B1 $end
$var wire 1 * B2 $end
$var wire 1 + B3 $end
$var wire 1 , B4 $end
$var wire 1 - B5 $end
$var wire 1 . B6 $end
$var wire 1 / B7 $end

$scope module i1 $end
$var wire 1 0 gnd $end
$var wire 1 1 vcc $end
$var wire 1 2 unknown $end
$var tri1 1 3 devclrn $end
$var tri1 1 4 devpor $end
$var tri1 1 5 devoe $end
$var wire 1 6 B0~output_o $end
$var wire 1 7 B1~output_o $end
$var wire 1 8 B2~output_o $end
$var wire 1 9 B3~output_o $end
$var wire 1 : B4~output_o $end
$var wire 1 ; B5~output_o $end
$var wire 1 < B6~output_o $end
$var wire 1 = B7~output_o $end
$var wire 1 > clk~input_o $end
$var wire 1 ? clk~inputclkctrl_outclk $end
$var wire 1 @ A~input_o $end
$var wire 1 A inst4~0_combout $end
$var wire 1 B inst7|q~q $end
$var wire 1 C inst5~combout $end
$var wire 1 D inst8|q~q $end
$var wire 1 E Bi2~input_o $end
$var wire 1 F Bi3~input_o $end
$var wire 1 G inst3~0_combout $end
$var wire 1 H Bi5~input_o $end
$var wire 1 I Bi6~input_o $end
$var wire 1 J Bi7~input_o $end
$upscope $end
$upscope $end
$enddefinitions $end
#0
$dumpvars
0!
0"
0#
0$
1%
0&
0'
1(
1)
0*
0+
0,
0-
1.
0/
00
11
x2
13
14
15
16
17
08
09
0:
0;
1<
0=
0>
0?
0@
0A
0B
0C
0D
0E
0F
0G
0H
1I
0J
$end
#10000
1'
1>
1?
#20000
0'
0>
0?
#30000
1'
1>
1?
#40000
1!
0'
1@
0>
0?
1A
#50000
1'
1>
1?
1B
07
0)
1C
0A
#60000
0'
0>
0?
#70000
1'
1>
1?
1D
0B
17
06
0(
1)
1G
0C
1:
1,
#80000
0!
0'
0@
0>
0?
1C
#90000
1'
1>
1?
#100000
0'
0>
0?
#110000
1'
1>
1?
#120000
1!
0'
1@
0>
0?
0C
#130000
1'
1>
1?
0D
16
1(
0G
1A
0:
0,
#140000
0'
0>
0?
#150000
1'
1>
1?
1B
07
0)
1C
0A
#160000
0!
0'
0@
0>
0?
0C
1A
#170000
1'
1>
1?
#180000
0'
0>
0?
#190000
1'
1>
1?
#200000
1!
0'
1@
0>
0?
1C
0A
#210000
1'
1>
1?
1D
0B
17
06
0(
1)
1G
0C
1:
1,
#220000
0'
0>
0?
#230000
1'
1>
1?
0D
16
1(
0G
1A
0:
0,
#240000
0!
0'
0@
0>
0?
0A
#250000
1'
1>
1?
#260000
0'
0>
0?
#270000
1'
1>
1?
#280000
1!
0'
1@
0>
0?
1A
#290000
1'
1>
1?
1B
07
0)
1C
0A
#300000
0'
0>
0?
#310000
1'
1>
1?
1D
0B
17
06
0(
1)
1G
0C
1:
1,
#320000
0!
0'
0@
0>
0?
1C
#330000
1'
1>
1?
#340000
0'
0>
0?
#350000
1'
1>
1?
#360000
1!
0'
1@
0>
0?
0C
#370000
1'
1>
1?
0D
16
1(
0G
1A
0:
0,
#380000
0'
0>
0?
#390000
1'
1>
1?
1B
07
0)
1C
0A
#400000
0!
0'
0@
0>
0?
0C
1A
#410000
1'
1>
1?
#420000
0'
0>
0?
#430000
1'
1>
1?
#440000
1!
0'
1@
0>
0?
1C
0A
#450000
1'
1>
1?
1D
0B
17
06
0(
1)
1G
0C
1:
1,
#460000
0'
0>
0?
#470000
1'
1>
1?
0D
16
1(
0G
1A
0:
0,
#480000
0!
0'
0@
0>
0?
0A
#490000
1'
1>
1?
#500000
0'
0>
0?
#510000
1'
1>
1?
#520000
1!
0'
1@
0>
0?
1A
#530000
1'
1>
1?
1B
07
0)
1C
0A
#540000
0'
0>
0?
#550000
1'
1>
1?
1D
0B
17
06
0(
1)
1G
0C
1:
1,
#560000
0!
0'
0@
0>
0?
1C
#570000
1'
1>
1?
#580000
0'
0>
0?
#590000
1'
1>
1?
#600000
1!
0'
1@
0>
0?
0C
#610000
1'
1>
1?
0D
16
1(
0G
1A
0:
0,
#620000
0'
0>
0?
#630000
1'
1>
1?
1B
07
0)
1C
0A
#640000
0!
0'
0@
0>
0?
0C
1A
#650000
1'
1>
1?
#660000
0'
0>
0?
#670000
1'
1>
1?
#680000
1!
0'
1@
0>
0?
1C
0A
#690000
1'
1>
1?
1D
0B
17
06
0(
1)
1G
0C
1:
1,
#700000
0'
0>
0?
#710000
1'
1>
1?
0D
16
1(
0G
1A
0:
0,
#720000
0!
0'
0@
0>
0?
0A
#730000
1'
1>
1?
#740000
0'
0>
0?
#750000
1'
1>
1?
#760000
1!
0'
1@
0>
0?
1A
#770000
1'
1>
1?
1B
07
0)
1C
0A
#780000
0'
0>
0?
#790000
1'
1>
1?
1D
0B
17
06
0(
1)
1G
0C
1:
1,
#800000
0!
0'
0@
0>
0?
1C
#810000
1'
1>
1?
#820000
0'
0>
0?
#830000
1'
1>
1?
#840000
1!
0'
1@
0>
0?
0C
#850000
1'
1>
1?
0D
16
1(
0G
1A
0:
0,
#860000
0'
0>
0?
#870000
1'
1>
1?
1B
07
0)
1C
0A
#880000
0!
0'
0@
0>
0?
0C
1A
#890000
1'
1>
1?
#900000
0'
0>
0?
#910000
1'
1>
1?
#920000
1!
0'
1@
0>
0?
1C
0A
#930000
1'
1>
1?
1D
0B
17
06
0(
1)
1G
0C
1:
1,
#940000
0'
0>
0?
#950000
1'
1>
1?
0D
16
1(
0G
1A
0:
0,
#960000
0!
0'
0@
0>
0?
0A
#970000
1'
1>
1?
#980000
0'
0>
0?
#990000
1'
1>
1?
